<?xml version="1.0" encoding="utf-8"?>
<!-- Generator: Adobe Illustrator 23.0.1, SVG Export Plug-In . SVG Version: 6.00 Build 0)  -->
<svg version="1.1" id="Capa_1" xmlns="http://www.w3.org/2000/svg" xmlns:xlink="http://www.w3.org/1999/xlink" x="0px" y="0px"
	 viewBox="0 0 16.1 9.1" style="enable-background:new 0 0 16.1 9.1;" xml:space="preserve">
<style type="text/css">
	.st0{fill:#FFE153;}
</style>
<title>message-tail-danger-bottom-right</title>
<g>
	<g id="Capa_1-2">
		<g id="Layer_2">
			<g id="Layer_1-2">
				<path class="st0" d="M16.1,0L3.3,0C2.6,2.8,1.5,5.5,0.1,8C0,8.2,0,8.4,0.1,8.6c0.1,0.4,0.6,0.7,1,0.6C6.7,7.2,11.8,4.1,16.1,0z"
					/>
			</g>
		</g>
	</g>
</g>
</svg>
